…
``` r
# first ten rows
as_tibble(step_info)
#> # A tibble: 1,610 x 7
#>     step date       time_days pav_bar wct_pct gor_m3m3 wgr_m3m3
#>    <int> <date>         <dbl>   <dbl>   <dbl>    <dbl>    <dbl>
#>  1     1 2008-01-01      1       330.       0        0        0
#>  2     2 2008-01-01      1.63    330.       0        0        0
#>  3     3 2008-01-02      2.32    330.       0        0        0
#>  4     4 2008-01-03      3.5     330.       0        0        0
#>  5     5 2008-01-05      5.45    330.       0        0        0
#>  6     6 2008-01-08      8.22    330.       0        0        0
#>  7     7 2008-01-11     11       330.       0        0        0
#>  8     8 2008-01-14     14.6     330.       0        0        0
#>  9     9 2008-01-17     17.8     330.       0        0        0
#> 10    10 2008-01-21     21       330.       0        0        0
#> # ... with 1,600 more rows
```
…
    print()
#> # A tibble: 104 x 3
#>    date       vol_oil  cum_oil
#>    <date>       <dbl>    <dbl>
#>  1 2008-02-01  49091.   49091.
#>  2 2008-03-01  83361.  132452.
#>  3 2008-04-01  74532.  206985.
#>  4 2008-05-01 125479.  332463.
#>  5 2008-06-01 143787.  476250.
#>  6 2008-07-01 166280.  642530.
#>  7 2008-08-01 165444.  807974.
#>  8 2008-09-01 192263. 1000237.
#>  9 2008-10-01 237174. 1237411.
#> 10 2008-11-01 250325. 1487736.
#> # ... with 94 more rows
```
…
# step field totals
sim_cum_oil <- 
step_totals %>% 
    select(date, oil_otw) %>% 
    mutate(oil_this_period = oil_otw - lag(oil_otw, default = 0)) %>% 
    mutate(year = year(date), month = month(date)) %>%
    group_by(year, month) %>%
    summarize(vol_oil = sum(oil_this_period)) %>%
    ungroup() %>%
    mutate(date = ymd(paste(year, month, "01", sep = "-"))) %>%
    mutate(source = "simulator") %>%
    mutate(cum_oil = cumsum(vol_oil)) %>%
    select(date, cum_oil, source) %>%
    print()
#> # A tibble: 97 x 3
#>    date       cum_oil source   
#>    <date>       <dbl> <chr>    
#>  1 2008-01-01       0 simulator
#>  2 2008-02-01   30840 simulator
#>  3 2008-03-01  120869 simulator
#>  4 2008-04-01  194702 simulator
#>  5 2008-05-01  318898 simulator
#>  6 2008-06-01  456145 simulator
#>  7 2008-08-01  781866 simulator
#>  8 2008-09-01  944881 simulator
#>  9 2008-10-01 1166111 simulator
#> 10 2008-11-01 1413884 simulator
#> # ... with 87 more rows
```
…
