…
Finally, we get all the vectors for step number, date, date, average pressure, watercut, GOR and WGR in a dataframe.

Then, we show the dataframe as a tibble, which is an elegant way of presenting long dataframes. This dataframe step_info, in particular, has 1610 rows and 7 columns.

# show as a tibble
(step_info <- as_tibble(step_info))
#> # A tibble: 1,610 x 7
#>     step date       time_days pav_bar wct_pct gor_m3m3 wgr_m3m3
#>    <int> <date>         <dbl>   <dbl>   <dbl>    <dbl>    <dbl>
#>  1     1 2008-01-01      1       330.       0        0        0
#>  2     2 2008-01-01      1.63    330.       0        0        0
#>  3     3 2008-01-02      2.32    330.       0        0        0
#>  4     4 2008-01-03      3.5     330.       0        0        0
#>  5     5 2008-01-05      5.45    330.       0        0        0
#>  6     6 2008-01-08      8.22    330.       0        0        0
#>  7     7 2008-01-11     11       330.       0        0        0
#>  8     8 2008-01-14     14.6     330.       0        0        0
#>  9     9 2008-01-17     17.8     330.       0        0        0
#> 10    10 2008-01-21     21       330.       0        0        0
#> # ... with 1,600 more rows
…
Plot all variables from STEP block

To prevent cluttering our report from lots of plots, we will show all plots in one figure using facets. In order to achieve this, we will have to transform our data in tidy format.

library(tidyr)

# convert to tidy format
step_info_gather <- 
step_info %>% 
  select(-c(step, time_days)) %>% 
  gather(key = var, value, pav_bar:wgr_m3m3) %>% 
  print()
#> # A tibble: 6,440 x 3
#>    date       var     value
#>    <date>     <chr>   <dbl>
#>  1 2008-01-01 pav_bar  330.
#>  2 2008-01-01 pav_bar  330.
#>  3 2008-01-02 pav_bar  330.
#>  4 2008-01-03 pav_bar  330.
#>  5 2008-01-05 pav_bar  330.
#>  6 2008-01-08 pav_bar  330.
#>  7 2008-01-11 pav_bar  330.
#>  8 2008-01-14 pav_bar  330.
#>  9 2008-01-17 pav_bar  330.
#> 10 2008-01-21 pav_bar  330.
#> # ... with 6,430 more rows
…
Fix the dates in the merge dataframe so they are continuous from 2018 till October 2016.

Calculate cumulatives and volumes by month

Extract Field cumulatives from the BALANCE-AT block

# load a script with functions
r_folder <- file.path(proj_root, "R")
r_script <- file.path(r_folder, "extract_data_from_prt.R")
source(r_script)

# run function to extract field totals or cumulative production
field_totals <- extract_field_totals(prt_file_content = volve_2016_txt)
field_totals
#> # A tibble: 340 x 8
#>    date        days     ocip     ooip oil_otw wat_otw  gas_otw   pav
#>    <date>     <int>    <dbl>    <dbl>   <dbl>   <dbl>    <dbl> <dbl>
#>  1 2007-12-31     0 21967455 21967455       0       0        0  330.
#>  2 2008-01-11    11 21967456 21967455       0       0        0  330.
#>  3 2008-01-21    21 21967455 21967455       0       0        0  330.
#>  4 2008-01-31    31 21967454 21967455       0       0        0  330.
#>  5 2008-02-10    41 21967454 21967455       0       0        0  330.
#>  6 2008-02-20    51 21948189 21967455   19265       0  3055593  325.
#>  7 2008-02-26    57 21936614 21967455   30840       0  4884638  323.
#>  8 2008-03-01    61 21925419 21967455   42035       0  6650055  320.
#>  9 2008-03-11    71 21897024 21967455   70430       0 11113293  314.
#> 10 2008-03-21    81 21867231 21967455  100223       1 15777548  308.
#> # ... with 330 more rows
…
dim(field_totals)
#> [1] 340   8

Join field totals and step dataframes

We merge both tables, steps and field cumulatives. The resultant dataframe we call it step_totals.

# join both tables by the common variable "date"
step_totals <- 
left_join(step_info, field_totals, by = "date") %>% 
    na.omit() %>% 
    select(date, time_days, days, everything()) %>% 
    as_tibble() %>% 
    print
#> # A tibble: 524 x 14
#>    date       time_days  days  step pav_bar wct_pct gor_m3m3 wgr_m3m3
#>    <date>         <dbl> <int> <int>   <dbl>   <dbl>    <dbl>    <dbl>
#>  1 2008-01-11      11      11     7    330.       0       0         0
#>  2 2008-01-21      21      21    10    330.       0       0         0
#>  3 2008-01-31      31      31    13    330.       0       0         0
#>  4 2008-02-10      41      41    15    330.       0       0         0
#>  5 2008-02-20      51      51    17    325.       0     158.        0
#>  6 2008-02-26      57      57    18    323.       0     158.        0
#>  7 2008-03-01      61      61    19    320.       0     158.        0
#>  8 2008-03-11      71      71    21    314.       0     157.        0
#>  9 2008-03-21      81      81    23    308.       0     156.        0
#> 10 2008-03-21      81.5    81    24    308        0     156.        0
#> # ... with 514 more rows, and 6 more variables: ocip <dbl>, ooip <dbl>,
#> #   oil_otw <dbl>, wat_otw <dbl>, gas_otw <dbl>, pav <dbl>
…
    mutate(wat_this_period = wat_otw - lag(wat_otw, default = 0)) %>% 
    mutate(year = year(date), month = month(date)) %>%
    group_by(year, month) %>%
    summarize(vol_oil = sum(oil_this_period), 
              vol_gas = sum(gas_this_period), 
              vol_wat = sum(wat_this_period)) %>%
    ungroup() %>%
    mutate(date = ymd(paste(year, month, "01", sep = "-"))) %>%
    # mutate(source = "simulator") %>%
    mutate(cum_oil = cumsum(vol_oil), 
           cum_gas = cumsum(vol_gas), 
           cum_wat = cumsum(vol_wat)) %>%
    select(date, year, month, everything()) %>%
    print()
#> # A tibble: 106 x 9
#>    date        year month vol_oil  vol_gas vol_wat cum_oil  cum_gas cum_wat
#>    <date>     <dbl> <dbl>   <dbl>    <dbl>   <dbl>   <dbl>    <dbl>   <dbl>
#>  1 2008-01-01  2008     1       0        0       0       0   0.           0
#>  2 2008-02-01  2008     2   30840  4884638       0   30840   4.88e6       0
#>  3 2008-03-01  2008     3   90029 14117066       1  120869   1.90e7       1
#>  4 2008-04-01  2008     4   73833 11469357   22292  194702   3.05e7   22293
#>  5 2008-05-01  2008     5  124196 19115952  212550  318898   4.96e7  234843
#>  6 2008-06-01  2008     6  137247 20967327  192961  456145   7.06e7  427804
#>  7 2008-07-01  2008     7  155664 24005385  212739  611809   9.46e7  640543
#>  8 2008-08-01  2008     8  170057 26420155  227653  781866   1.21e8  868196
#>  9 2008-09-01  2008     9  163015 25205884  137169  944881   1.46e8 1005365
#> 10 2008-10-01  2008    10  221230 33570835  317736 1166111   1.80e8 1323101
#> # ... with 96 more rows

Filling the date gaps with periodic dates

In this case, at first sight, it seems that we got periodic dates for the production of the field. But what if we are missing a month or two? One way to ensure we have all months accounted for is building a known sequence of dates from 2016-01-01 until 2008-10-01. That is what we do with the function seq.Date():

seq.Date(as.Date("2008-01-01"), as.Date("2016-10-01"), by = "month")

# create a dataframe with complete dates from 2008 until Oct-2016
# this will fill any holes in the dates of any of the two dataframes
dates_complete <- as_tibble(data.frame(date= seq.Date(as.Date("2008-01-01"), 
                                          as.Date("2016-10-01"), by = "month"),
                 cum_oil = 0, cum_gas = 0, cum_wat = 0))
dates_complete
#> # A tibble: 106 x 4
#>    date       cum_oil cum_gas cum_wat
#>    <date>       <dbl>   <dbl>   <dbl>
#>  1 2008-01-01       0       0       0
#>  2 2008-02-01       0       0       0
#>  3 2008-03-01       0       0       0
#>  4 2008-04-01       0       0       0
#>  5 2008-05-01       0       0       0
#>  6 2008-06-01       0       0       0
#>  7 2008-07-01       0       0       0
#>  8 2008-08-01       0       0       0
#>  9 2008-09-01       0       0       0
#> 10 2008-10-01       0       0       0
#> # ... with 96 more rows
…
    # add up cumulatives .x and .y
    mutate(cum_oil = cum_oil.x + cum_oil.y, 
           cum_gas = cum_gas.x + cum_gas.y,
           cum_wat = cum_wat.x + cum_wat.y) %>%       # sum cumulatives
    select(date, cum_oil, cum_gas, cum_wat, vol_oil, vol_gas, vol_wat) %>%
    # replace 0s with previous cumulative. these were rows that didn't exist
    mutate(cum_oil = ifelse(cum_oil == 0, lag(cum_oil, default = 0), cum_oil)) %>%
    mutate(cum_gas = ifelse(cum_gas == 0, lag(cum_gas, default = 0), cum_gas)) %>%
    mutate(cum_wat = ifelse(cum_wat == 0, lag(cum_wat, default = 0), cum_wat)) %>%
    mutate(vol_oil = ifelse(vol_oil == 0, lag(vol_oil, default = 0), vol_oil)) %>%
    mutate(vol_gas = ifelse(vol_gas == 0, lag(vol_gas, default = 0), vol_gas)) %>%
    mutate(vol_oil = ifelse(vol_wat == 0, lag(vol_wat, default = 0), vol_wat)) %>%
    as_tibble() %>% 
    print
#> # A tibble: 106 x 7
#>    date       cum_oil   cum_gas cum_wat vol_oil  vol_gas vol_wat
#>    <date>       <dbl>     <dbl>   <dbl>   <dbl>    <dbl>   <dbl>
#>  1 2008-01-01       0         0       0       0        0       0
#>  2 2008-02-01   30840   4884638       0       0  4884638       0
#>  3 2008-03-01  120869  19001704       1       1 14117066       1
#>  4 2008-04-01  194702  30471061   22293   22292 11469357   22292
#>  5 2008-05-01  318898  49587013  234843  212550 19115952  212550
#>  6 2008-06-01  456145  70554340  427804  192961 20967327  192961
#>  7 2008-07-01  611809  94559725  640543  212739 24005385  212739
#>  8 2008-08-01  781866 120979880  868196  227653 26420155  227653
#>  9 2008-09-01  944881 146185764 1005365  137169 25205884  137169
#> 10 2008-10-01 1166111 179756599 1323101  317736 33570835  317736
#> # ... with 96 more rows
…
Reading the historical production

Like we did in the previous article, we read the production history from an Excel file. But this time we will be reading all the variables in the dataset.

# load historical production from Excel file
library(xlsx)   # library to read Excel files in R

# read the Excel file
proj_root <- rprojroot::find_rstudio_root_file()   # get the project root folder
xl_file <- file.path(proj_root, "inst/rawdata", "Volve production data.xlsx")
# read only the monthly production
prod_hist <- as_tibble(read.xlsx(xl_file, sheetName = "Monthly Production Data"))
prod_hist
#> # A tibble: 529 x 10
#>    Wellbore.name NPDCode  Year Month On.Stream Oil   Gas   Water GI   
#>    <fct>           <dbl> <dbl> <dbl> <fct>     <fct> <fct> <fct> <fct>
#>  1 15/9-F-4         5693  2007     9 NULL      NULL  NULL  NULL  NULL 
#>  2 15/9-F-5         5769  2007     9 NULL      NULL  NULL  NULL  NULL 
#>  3 15/9-F-4         5693  2007    10 NULL      NULL  NULL  NULL  NULL 
#>  4 15/9-F-5         5769  2007    10 NULL      NULL  NULL  NULL  NULL 
#>  5 15/9-F-4         5693  2007    11 NULL      NULL  NULL  NULL  NULL 
#>  6 15/9-F-5         5769  2007    11 NULL      NULL  NULL  NULL  NULL 
#>  7 15/9-F-4         5693  2007    12 NULL      NULL  NULL  NULL  NULL 
#>  8 15/9-F-5         5769  2007    12 NULL      NULL  NULL  NULL  NULL 
#>  9 15/9-F-4         5693  2008     1 0         NULL  NULL  NULL  NULL 
#> 10 15/9-F-5         5769  2008     1 0         NULL  NULL  NULL  NULL 
#> # ... with 519 more rows, and 1 more variable: WI <fct>
…
    select(-c(NPDCode, On.Stream)) %>% 
    rename(year = Year, month = Month, oil = Oil, gas = Gas, wat = Water) %>% 
    na.omit() %>%                 # remove all rows that have at least one NA
    group_by(year, month) %>%
    summarise(vol_oil = sum(oil), vol_gas = sum(gas), vol_wat = sum(wat),
              vol_gi = sum(GI), vol_wi = sum(WI)) %>%
    mutate(date = ymd(paste(year, month, "01", sep = "-"))) %>%
    arrange(date) %>%
    ungroup() %>%
    select(date, vol_oil, vol_gas, vol_wat, vol_gi, vol_wi) %>%
    mutate(cum_oil = cumsum(vol_oil), cum_gas = cumsum(vol_gas),
           cum_wat = cumsum(vol_wat), 
           cum_gi = cumsum(vol_gi), cum_wi = cumsum(vol_wi)) %>%
    print()
#> # A tibble: 104 x 11
#>    date       vol_oil vol_gas vol_wat vol_gi vol_wi cum_oil cum_gas cum_wat
#>    <date>       <dbl>   <dbl>   <dbl>  <dbl>  <dbl>   <dbl>   <dbl>   <dbl>
#>  1 2008-02-01  49091.  7.07e6   413.       0      0  4.91e4  7.07e6    413.
#>  2 2008-03-01  83361.  1.22e7    27.4      0      0  1.32e5  1.93e7    440.
#>  3 2008-04-01  74532.  1.15e7   482.       0      0  2.07e5  3.08e7    922.
#>  4 2008-05-01 125479.  1.91e7 16280.       0      0  3.32e5  4.99e7  17202.
#>  5 2008-06-01 143787.  2.15e7   474.       0      0  4.76e5  7.14e7  17677.
#>  6 2008-07-01 166280.  2.47e7   416.       0      0  6.43e5  9.60e7  18093.
#>  7 2008-08-01 165444.  2.39e7   577.       0      0  8.08e5  1.20e8  18669.
#>  8 2008-09-01 192263.  2.75e7   464.       0      0  1.00e6  1.47e8  19134.
#>  9 2008-10-01 237174.  3.38e7   725.       0      0  1.24e6  1.81e8  19859.
#> 10 2008-11-01 250325.  3.57e7  2580.       0      0  1.49e6  2.17e8  22439.
#> # ... with 94 more rows, and 2 more variables: cum_gi <dbl>, cum_wi <dbl>
…
This saves the production history dataframe after the data transformations.

# save historical data
data_folder <- file.path(proj_root, "data")
save(hist_cumulatives, file = file.path(data_folder, "hist_cumulatives_104.Rdata"))
write.csv(hist_cumulatives, file = file.path(data_folder, 
                                         "hist_cumulatives_104.CSV"), 
          row.names = FALSE)

# create a dataframe with complete dates from 2008 until Oct-2016
df <- as_tibble(data.frame(date= seq.Date(as.Date("2008-01-01"), 
                                          as.Date("2016-10-01"), by = "month"),
                 cum_oil = 0, cum_gas = 0, cum_wat = 0))
df
#> # A tibble: 106 x 4
#>    date       cum_oil cum_gas cum_wat
#>    <date>       <dbl>   <dbl>   <dbl>
#>  1 2008-01-01       0       0       0
#>  2 2008-02-01       0       0       0
#>  3 2008-03-01       0       0       0
#>  4 2008-04-01       0       0       0
#>  5 2008-05-01       0       0       0
#>  6 2008-06-01       0       0       0
#>  7 2008-07-01       0       0       0
#>  8 2008-08-01       0       0       0
#>  9 2008-09-01       0       0       0
#> 10 2008-10-01       0       0       0
#> # ... with 96 more rows

Remember that we created this date sequence above. This sequence had 106 rows.

dates_complete
#> # A tibble: 106 x 4
#>    date       cum_oil cum_gas cum_wat
#>    <date>       <dbl>   <dbl>   <dbl>
#>  1 2008-01-01       0       0       0
#>  2 2008-02-01       0       0       0
#>  3 2008-03-01       0       0       0
#>  4 2008-04-01       0       0       0
#>  5 2008-05-01       0       0       0
#>  6 2008-06-01       0       0       0
#>  7 2008-07-01       0       0       0
#>  8 2008-08-01       0       0       0
#>  9 2008-09-01       0       0       0
#> 10 2008-10-01       0       0       0
#> # ... with 96 more rows
…
    mutate(cum_oil = cum_oil.x + cum_oil.y) %>%
    mutate(cum_gas = cum_gas.x + cum_gas.y) %>%
    mutate(cum_wat = cum_wat.x + cum_wat.y) %>%
    # filter(date != as.Date("2016-10-01")) %>% 
    # this fixes the zeros generated by adding complete dates
    mutate(cum_oil = ifelse(cum_oil == 0, lag(cum_oil, default=0), cum_oil)) %>%
    mutate(cum_gas = ifelse(cum_gas == 0, lag(cum_gas, default=0), cum_gas)) %>%
    mutate(cum_wat = ifelse(cum_wat == 0, lag(cum_wat, default=0), cum_wat)) %>%
    mutate(cum_gi = ifelse(cum_gi == 0, lag(cum_gi, default=0), cum_gi)) %>% 
    mutate(cum_wi = ifelse(cum_wi == 0, lag(cum_wi, default=0), cum_wi)) %>% 
    select(date, cum_oil, cum_gas, cum_wat, vol_oil, vol_gas, vol_wat, 
           vol_gi, vol_wi, cum_gi, cum_wi) %>%
    as_tibble() %>% 
    print
#> # A tibble: 106 x 11
#>    date       cum_oil cum_gas cum_wat vol_oil vol_gas vol_wat vol_gi vol_wi
#>    <date>       <dbl>   <dbl>   <dbl>   <dbl>   <dbl>   <dbl>  <dbl>  <dbl>
#>  1 2008-01-01  0.      0.          0       0   0.         0        0      0
#>  2 2008-02-01  4.91e4  7.07e6    413.  49091.  7.07e6   413.       0      0
#>  3 2008-03-01  1.32e5  1.93e7    440.  83361.  1.22e7    27.4      0      0
#>  4 2008-04-01  2.07e5  3.08e7    922.  74532.  1.15e7   482.       0      0
#>  5 2008-05-01  3.32e5  4.99e7  17202. 125479.  1.91e7 16280.       0      0
#>  6 2008-06-01  4.76e5  7.14e7  17677. 143787.  2.15e7   474.       0      0
#>  7 2008-07-01  6.43e5  9.60e7  18093. 166280.  2.47e7   416.       0      0
#>  8 2008-08-01  8.08e5  1.20e8  18669. 165444.  2.39e7   577.       0      0
#>  9 2008-09-01  1.00e6  1.47e8  19134. 192263.  2.75e7   464.       0      0
#> 10 2008-10-01  1.24e6  1.81e8  19859. 237174.  3.38e7   725.       0      0
#> # ... with 96 more rows, and 2 more variables: cum_gi <dbl>, cum_wi <dbl>

Great! We got the dataframe hist_cumulatives_dt, with 106 rows and 11 columns.

Plot production rates

If we want to plot several variables in one figure we have to convert the dataframe into tidy data format, and then use facets.

hist_cumulatives_dt_gather <- 
hist_cumulatives_dt %>% 
  select(date, vol_oil, vol_gas, vol_wat) %>% 
  gather(key = var, value, vol_oil:vol_wat) %>% 
  
  print()
#> # A tibble: 318 x 3
#>    date       var       value
#>    <date>     <chr>     <dbl>
#>  1 2008-01-01 vol_oil      0 
#>  2 2008-02-01 vol_oil  49091.
#>  3 2008-03-01 vol_oil  83361.
#>  4 2008-04-01 vol_oil  74532.
#>  5 2008-05-01 vol_oil 125479.
#>  6 2008-06-01 vol_oil 143787.
#>  7 2008-07-01 vol_oil 166280.
#>  8 2008-08-01 vol_oil 165444.
#>  9 2008-09-01 vol_oil 192263.
#> 10 2008-10-01 vol_oil 237174.
#> # ... with 308 more rows
…
# rename historical cumulatives according to source
hist_cumulatives_src <- 
hist_cumulatives_dt %>% 
    select(date, cum_oil, cum_gas, cum_wat) %>% 
    rename(cum_oil_hist = cum_oil, cum_gas_hist = cum_gas, cum_wat_hist = cum_wat) 

# combine simulator and historical dataframes. common variable is "date"
cumulatives_all <- full_join(hist_cumulatives_src, sim_cumulatives_src, by = "date")
cumulatives_all
#> # A tibble: 106 x 7
#>    date       cum_oil_hist cum_gas_hist cum_wat_hist cum_oil_sim
#>    <date>            <dbl>        <dbl>        <dbl>       <dbl>
#>  1 2008-01-01           0            0            0            0
#>  2 2008-02-01       49091.     7068009.         413.       30840
#>  3 2008-03-01      132452.    19259180.         440.      120869
#>  4 2008-04-01      206985.    30765621.         922.      194702
#>  5 2008-05-01      332463.    49857492.       17202.      318898
#>  6 2008-06-01      476250.    71369826.       17677.      456145
#>  7 2008-07-01      642530.    96025129.       18093.      611809
#>  8 2008-08-01      807974.   119948670.       18669.      781866
#>  9 2008-09-01     1000237.   147475129.       19134.      944881
#> 10 2008-10-01     1237411.   181232829.       19859.     1166111
#> # ... with 96 more rows, and 2 more variables: cum_gas_sim <dbl>,
#> #   cum_wat_sim <dbl>
…
